{
    "Math": {
        "4eme": {
            "Katable": [],
            "Schoolmouv": {
                "Nombres et calcul": [],
                "Organisation et gestion des données": [],
                "Grandeurs et mesures": [],
                "Espace et géométrie": []
            }
        },
        "3eme": {
            "Katable": {
                "Chapitres": [],
                "Révision Brevet": []
            },
            "Schoolmouv": {
                "Nombres et calcul": [],
                "Organisation et gestion des données - Fonctions": [],
                "Grandeurs et mesures": [],
                "Espace et géométrie": [],
                "Sections planes": [],
                "Arithmétique": [],
                "Calcul littéral : factoriser, équation 'produit nul'": [],
                "Grandeurs composées": []
            }
        },
        "2nd": {
            "Katable": {
                "Nombres et calculs": [],
                "Géométrie": [],
                "Fonctions": [],
                "Statistiques et probabilités": [],
                "Algorithmique et programmation": []
            },
            "Schoolmouv": {
                "Nombres et calcul": [],
                "Géométrie": [],
                "Fonctions": [],
                "Statistiques et probabilités": []
            }
        }
    },
    "Physique": {
        "5eme": {
            "Kartable": {
                "Organisation et transformation de la matière": [],
                "Mouvement et intéractions": [],
                "L'énergie et ses conversions": [],
                "Des signaux pour observer et communiques": []
            }
        },
        "4eme": {
            "Katable": {
                "Organisation et transformation de la matière": [],
                "Mouvement et interactions": [
                    "F Les forces"
                ],
                "L'énergie et ses conversions": [
                    "F La tension électrique",
                    "F l'intensité du courant électrique",
                    "F Les résistances électriques"
                ],
                "Des signaux pour observer et communiquer": [
                    "F Les signaux lumineux et leurs applications",
                    "F Les signaux sonores et leurs applications"
                ]
            },
            "Schoolmouv": {
                "Les états de la matière": [],
                "Les transformations chimiques": [
                    "F Les ions",
                    "F Le pH ou potentiel hydrogène",
                    "F Les réactions aux solutions acides"
                ],
                "L'organisation de la matière dans l'Univers": [],
                "Mouvements et intéractions": [
                    "F Les mouvements",
                    "F Intéractions et forces",
                    "F Poids et gravitation"
                ],
                "L'énergie": [
                    "F Les différentes formes d'énergie",
                    "F Calculer la vitesse et l'énergie cinétique"
                ],
                "Les circuits électriques": [
                    "F La tension électrique",
                    "F L'intensité électrique",
                    "F La résistance électrique",
                    "F Puissance et énergie électriques"
                ],
                "Les signaux": [
                    "F Signal et information",
                    "F La lumière",
                    "F Le son",
                    "F Les signaux sonores"
                ]
            }
        },
        "3eme": {
            "Katable": {
                "Organisation et transformation de la matière": [
                    "F Le modèle de l'atome",
                    "F Ions et ph"
                ],
                "Mouvement et interactions": [
                    "F La gravitation"
                ],
                "L'énergie et ses conversions": [
                    "F L'énergie mécanique",
                    "F Puissance et énergie électrique"
                ],
                "Des signaux pour observer et communiquer": [
                    "F Les dangers des signaux lumineux et sonores"
                ]
            },
            "Schoolmouv": "mm que 4ème"
        },
        "2nd": {
            "Katable": {
                "Intro": [],
                "Constitution et transformation de la matière": [],
                "Mouvement et interactions": [],
                "Ondes et signaux": []
            },
            "Schoolmouv": {
                "Constitution et transformation de la matière": [],
                "Mouvements et intéractions": [],
                "Ondes et signaux": [],
                "Vision et image": []
            }
        }
    }
}