{
    "Fr": {
        "Poesie": {
            "Elle était déchaussee, elle était decoiffee": "P1",
            "Melancholia": "P2",
            "livre 4 poeme 4": "P3"
        },
        "Litterature d'idees (fables)": {
            "Le Coche et la mouche": "F1",
            "Le Torrent et la Riviere": "F2",
            "La Lionne et l’Ourse": "F3",
            "les Fees": "F4"
        },
        "Roman": {
            "portrait de Julien": "R1",
            "livre 1, chap 9": "R2",
            "livre 2, chap 44": "R3"
        }
    },
    "Math": {
        "Nombre": {
            "Ensemble des Nombres": "ensembleDesNombres",
            "Intervalle de R": "intervalleDeR",
            "Valeur Absolue": "valeurAbsolue",
            "Test": {
                "Titre": [
                    "TEST",
                    "(en t)"
                ],
                "Txt1": [
                    "C'est très @red-{important}- de faire des tests",
                    "@blue-{très}- trés important",
                    "$radic@green-{e}-"
                ]
            }
        },
        "Calcul": {
            "Racine Carre": "racineCarre",
            "Fraction": "fractions",
            "Puissances": "puissances",
            "Identités Remarquables": "identitéRemarquable",
            "Équations": "equation"
        }
    },
    "Physique": {
        "Méthode": {
            "Chiffre Significatif": "chiffreSignificatif"
        },
        "Constitution de la Matière": {
            "Atomes": "atome",
            "Ions": "ions",
            "le Potentiel Hydrogène (pH)": "ph"
        },
        "Mouvement et intéraction": {
            "Mouvement": "mouvement",
            "Forces": "force",
            "Gravitation": "gravitation",
            "Poids": "poids"
        },
        "Circuit Électrique": {
            "Tension Électrique": "tensionElectrique",
            "Intensité Électrique": "intensiteElectrique",
            "Réistance Électrique": "resistanceElectrique"
        },
        "Energie": {
            "Énergie": "energie"
        }
    },
    "CodeRoute": {
        "Les Base de la Signalisation": {
            "Signalisation Verticale": "SignalisationVerticaleBase",
            "Signalisation Horizontale": "SignalisationHorizontaleBase",
            "Les Types de Routes": "TypeRoute",
            "Liste Panneaux (a faire)": "panneau",
            "Les Panneaux de Direction": "PanneauDirection"
        },
        "Les Intersections": {
            "Priorité dans les Intersections": "IntersectionPriorité",
            "Intersection sans Signalisation": "IntersectionSansSignalisation",
            "Les Carrefour Giratoire": "CarrefourGiratoire",
            "Feux Tricolore et Agents": "FeuxEtAgent"
        },
        "Croiser, Dépasser, Stationner et S'arreter": {
            "Croiser": "Croisement",
            "Depassement": "Depassement",
            "Stationner": "Stationner",
            "S'arreter": "s'arreter"
        },
        "Circuler": {
            "La Vitesse": "Vitesse"
        }
    }
}