{
    "Titre": {
        "fontSize": 45,
        "fontWeight": "bold",
        "couleur": "black"
    },
    "Sous-Titre": {
        "fontSize": 35,
        "fontWeight": "bold",
        "couleur": "blue"
    },
    "Defpart1": {
        "fontSize": 30,
        "fontWeight": "bold",
        "couleur": "green"
    },
    "Defpart2": {
        "fontSize": 30,
        "fontWeight": "normal",
        "couleur": "green"
    },
    "Loipart1": {
        "fontSize": 30,
        "fontWeight": "bold",
        "couleur": "red"
    },
    "Loipart2": {
        "fontSize": 30,
        "fontWeight": "normal",
        "couleur": "red"
    },
    "Ex": {
        "fontSize": 18,
        "fontWeight": "normal",
        "couleur": "black"
    }
}